{
  "type": "service_account",
  "project_id": "musicaround-1537798829304",
  "private_key_id": "55896af1d636d7091fb0a0f0a4863305c9c2673c",
  "private_key": "-----BEGIN PRIVATE KEY-----\nMIIEvgIBADANBgkqhkiG9w0BAQEFAASCBKgwggSkAgEAAoIBAQDJc253WrVDnw0d\n1dF+7fRid5iJbi+e0uJPY/TvKfZ1Fr8KCeh7r04wKo3K6Box7u7ttdMeWWBoLsdq\nP8xPU3J/Of8YN7W/3HHwB1jEgj54lM0sw534iRn6X100OC+4s57q6XpJbCTwNj2l\nqywC9wWyR+lMUEfWRr9VZGtDLR+iVjwYGu6fzD7Woa6sxjOLCLn5a15mbvqMvPs/\nXTU0JUEOqmhk6y+gvMVaN1pA8lNj7NYqNRzJ36I/LrJyaJxJ+aYAam1jogRW7Ay1\nQdCS1h0e3BrPJZLcnrXRYW2od3d1GbnpZxAhKpJHh4uBs46bYkVMI8P40PdM/ziQ\nfabNVZCdAgMBAAECggEABBLYvMKhkDq+4+fPOvMaYkRbWgoXne1TRLo3eX+ee3so\nhU4yfI/Ms7YklGIRp4lWnQl0ebRiefDaOPiNy9va4J4+XZHA096kEi+/2IdutncB\n2CIjh2NUWmcDxjrNoj1FnSf4AFSWwaHDKN63ft7aZ2LDYbbs4PUgyNwFPEBFF73/\n8fXW2pOECKknmEU1eprDlrJhXiD7mmnBHFm60BsS5gOe7uKCxawCfP0Vo2DpIG29\nAfy9eRLDDL7wHo4zAjF7v9QjcRdkfaAApclj57gSmeA9mPYuqS21sUCQHUfW2Jet\nQNm1ZMiQ3sZRMInHsREa/FnxNwylEK1G+slSfE7NQQKBgQD6mmT8LL4kDSRpN6YN\ng4MTP17kCKVAZRtgqg5Wuu9pg/9GXL7XsdO4YF1/OMX3jnM7YBNJ9RyvqGUwE4Qk\nBgzmE6ZdXH0WA2EA1yvQ1YU+u0XDbeydsGyYu+it/p5OoA6xiDZLmIPvE05BFbxY\n7XnbQNM/dUtifhyAAuEgx7ed3QKBgQDNyg4RqbMNLsVrbhzdYoHMf9BK8Oqqk4t7\nLDSdT1zD3pj8K1dXj1UyEK3u1s8B/fhvCoG9nkpJ2kEoEIACKXZAFPeWSSTqRC/2\nOYuOCYaznI4WoN3alxe47phPRKK1hbGTdSSM/6byJSsl2AChczkZ71GRN2Qj+32E\nbtbCpw1xwQKBgG+NjMhoTleT9hJUMDmxwgYuXloZsx3gI/i6mllnKy2IEXlLzbQM\nN5fKZbQ9HHqfUZIrqUpxrsxOpIRrG5ZBjzpXouXKRvAmnuaV4a47be3HxT1CUGK9\nZwnyE5hoUCXlv8StQqYSBSDGMj5so4PeajD8QUztNJpqUtt07Kv/2y+NAoGBAMnM\nW+OCL6y7sqhYgEGv+WyZ4Z27hcLjkKGmhanFS0hfnlGaBro8OeUwaf+N8c0YSWhK\nO1PAR0UIm2A4Xe7Azc6lQOzEqUh4uTeQ0oLkYIz89nDGKwfRpleY0Q7aVVv/0FSz\nSLZjdEh7nkYr/OJVZSdDgQ8P7ElEsp8NOdgDjLGBAoGBAKzsZgLwrbOrj2Li6T/T\nZrxqBBll0cRvR3Y11jFR8bc3xYUMDVdcMD16XH9Fo0Zm2YCCCQ2y++j52tLE3Gna\nwoVuS1cAY5NjjS7nNz4H2lBhO+vM4VY9NlolTZQe7xmQRnlmUo254DWJucyAaJfn\nL0+r41NvcGxXa6MjVgBeUB6W\n-----END PRIVATE KEY-----\n",
  "client_email": "firebase-adminsdk-ktwth@musicaround-1537798829304.iam.gserviceaccount.com",
  "client_id": "117390441123955243737",
  "auth_uri": "https://accounts.google.com/o/oauth2/auth",
  "token_uri": "https://oauth2.googleapis.com/token",
  "auth_provider_x509_cert_url": "https://www.googleapis.com/oauth2/v1/certs",
  "client_x509_cert_url": "https://www.googleapis.com/robot/v1/metadata/x509/firebase-adminsdk-ktwth%40musicaround-1537798829304.iam.gserviceaccount.com"
}
